C:\Users\USER\eclipse-workspace1\Selenium_Project\src\Commonfunction\InstantiateBrowser.java
C:\Users\USER\eclipse-workspace1\Selenium_Project\src\TestCases\ActionClass.java
C:\Users\USER\eclipse-workspace1\Selenium_Project\src\TestCases\ActionsDragandDropAndFrame.java
C:\Users\USER\eclipse-workspace1\Selenium_Project\src\SeleniumIntegratedWithTestNg\FlipcartActionsClass.java
C:\Users\USER\eclipse-workspace1\Selenium_Project\src\TestCases\DyanamicDropdown.java
C:\Users\USER\eclipse-workspace1\Selenium_Project\src\TestCases\FlipcartActionsClass.java
C:\Users\USER\eclipse-workspace1\Selenium_Project\src\TestCases\DynamicDropdownWithExplicitWait.java
C:\Users\USER\eclipse-workspace1\Selenium_Project\src\TestCases\IRCTCpage.java
C:\Users\USER\eclipse-workspace1\Selenium_Project\src\SeleniumIntegratedWithTestNg\MSRTCpage.java
C:\Users\USER\eclipse-workspace1\Selenium_Project\src\TestCases\CalendarWithImplicitWait.java
C:\Users\USER\eclipse-workspace1\Selenium_Project\src\TestCases\StaticDropdown.java
C:\Users\USER\eclipse-workspace1\Selenium_Project\src\TestCases\MSRTCpage.java
C:\Users\USER\eclipse-workspace1\Selenium_Project\src\SeleniumIntegratedWithTestNg\IRCTCpage.java
C:\Users\USER\eclipse-workspace1\Selenium_Project\src\TestCases\CrossBrowserTesting.java
