SeleniumIntegratedWithTestNg\MSRTCpage.class
TestCases\MSRTCpage.class
TestCases\CalendarWithImplicitWait.class
TestCases\CrossBrowserTesting.class
TestCases\IRCTCpage.class
Commonfunction\InstantiateBrowser.class
SeleniumIntegratedWithTestNg\IRCTCpage.class
TestCases\DyanamicDropdown.class
TestCases\ActionsDragandDropAndFrame.class
TestCases\StaticDropdown.class
SeleniumIntegratedWithTestNg\FlipcartActionsClass.class
TestCases\DynamicDropdownWithExplicitWait.class
TestCases\FlipcartActionsClass.class
TestCases\ActionClass.class
